  Seconds   Minutes     Hours  Type  Sub Chan  Num	Aux
  120.609   2.01016 0.0335026     N    0    0   47
  121.250   2.02083 0.0336806     N    0    0   47
  121.898   2.03164 0.0338607     N    0    0   51
  122.516   2.04193 0.0340321     N    0    0   11
  123.141   2.05234 0.0342057     N    0    0   47
  123.766   2.06276 0.0343793     N    0    0   47
  124.406   2.07344 0.0345573     N    0    0   47
  125.016   2.08359 0.0347266     N    0    0   11
  125.641   2.09401 0.0349002     N    0    0   47
  126.258   2.10430 0.0350716     N    0    0   11
  126.859   2.11432 0.0352387     N    0    0   47
  127.453   2.12422 0.0354036     N    0    0   47
  128.062   2.13437 0.0355729     N    0    0   47
  128.656   2.14427 0.0357378     N    0    0   11
  129.289   2.15482 0.0359136     N    0    0   47
  129.938   2.16562 0.0360938     N    0    0   47
  130.609   2.17682 0.0362804     N    0    0   47
  131.289   2.18815 0.0364692     N    0    0   47
  131.969   2.19948 0.0366580     N    0    0   47
  132.602   2.21003 0.0368338     N    0    0   47
  133.234   2.22057 0.0370095     N    0    0   47
  133.883   2.23138 0.0371897     N    0    0   47
  134.539   2.24232 0.0373720     N    0    0   47
  135.172   2.25286 0.0375477     N    0    0   11
  135.805   2.26341 0.0377235     N    0    0   47
  136.445   2.27409 0.0379015     N    0    0   47
  137.094   2.28490 0.0380816     N    0    0   11
  137.734   2.29557 0.0382595     N    0    0   11
  138.375   2.30625 0.0384375     N    0    0   47
  139.016   2.31693 0.0386155     N    0    0   47
  139.633   2.32721 0.0387869     N    0    0   11
  140.258   2.33763 0.0389605     N    0    0   47
  140.875   2.34792 0.0391319     N    0    0   11
  141.492   2.35820 0.0393034     N    0    0   11
  142.094   2.36823 0.0394705     N    0    0   11
  142.703   2.37839 0.0396398     N    0    0   47
  143.289   2.38815 0.0398025     N    0    0   11
  143.883   2.39805 0.0399674     N    0    0   11
  144.477   2.40794 0.0401324     N    0    0   11
  145.070   2.41784 0.0402973     N    0    0   11
  145.656   2.42760 0.0404601     N    0    0   11
  146.234   2.43724 0.0406207     N    0    0   12
  146.797   2.44661 0.0407769     N    0    0   11
  147.367   2.45612 0.0409353     N    0    0   11
  147.945   2.46576 0.0410959     N    0    0   12
  148.539   2.47565 0.0412609     N    0    0   11
  149.109   2.48516 0.0414193     N    0    0   11
  149.711   2.49518 0.0415864     N    0    0   47
  150.359   2.50599 0.0417665     N    0    0   11
  151.023   2.51706 0.0419510     N    0    0   11
  151.688   2.52813 0.0421354     N    0    0   11
  152.352   2.53919 0.0423199     N    0    0   47
  152.992   2.54987 0.0424978     N    0    0   11
  153.633   2.56055 0.0426758     N    0    0   12
  154.273   2.57122 0.0428537     N    0    0   11
  154.906   2.58177 0.0430295     N    0    0   60
  155.555   2.59258 0.0432096     N    0    0   12
  156.180   2.60299 0.0433832     N    0    0   11
  156.797   2.61328 0.0435547     N    0    0   11
  157.250   2.62083 0.0436806     ~    2    0    0
  157.406   2.62344 0.0437240     N    0    0   28
  158.023   2.63372 0.0438954     N    0    0   28
  158.641   2.64401 0.0440668     N    0    0   28
  159.266   2.65443 0.0442405     N    0    0   28
  159.453   2.65755 0.0442925     |    0    0   13
  159.875   2.66458 0.0444097     N    0    0   28
  160.227   2.67044 0.0445074     |    0    0   14
  160.492   2.67487 0.0445812     N    0    0   28
  161.102   2.68503 0.0447504     N    0    0   28
  161.500   2.69167 0.0448611     ~    0    0    0
  161.688   2.69479 0.0449132     N    0    0   11
  162.266   2.70443 0.0450738     N    0    0   11
  162.844   2.71406 0.0452344     N    0    0   11
  163.438   2.72396 0.0453993     N    0    0   47
  164.086   2.73477 0.0455794     N    0    0   47
  164.766   2.74609 0.0457682     N    0    0   47
  165.477   2.75794 0.0459657     N    0    0   15
  166.156   2.76927 0.0461545     N    0    0   47
  166.805   2.78008 0.0463346     N    0    0   11
  167.461   2.79102 0.0465169     N    0    0   47
  168.094   2.80156 0.0466927     N    0    0   11
  168.727   2.81211 0.0468685     N    0    0   11
  169.336   2.82227 0.0470378     N    0    0   11
  169.969   2.83281 0.0472135     N    0    0   11
  170.602   2.84336 0.0473893     N    0    0   11
  171.227   2.85378 0.0475629     N    0    0   11
  171.883   2.86471 0.0477452     N    0    0   47
  172.547   2.87578 0.0479297     N    0    0   11
  173.219   2.88698 0.0481163     N    0    0   11
  173.891   2.89818 0.0483030     N    0    0   47
  174.547   2.90911 0.0484852     N    0    0   11
  175.180   2.91966 0.0486610     N    0    0   11
  175.797   2.92995 0.0488325     N    0    0   11
  176.398   2.93997 0.0489996     N    0    0   11
  177.000   2.95000 0.0491667     N    0    0   47
  177.617   2.96029 0.0493381     N    0    0   47
  178.258   2.97096 0.0495161     N    0    0   11
  178.914   2.98190 0.0496984     N    0    0   11
  179.570   2.99284 0.0498806     N    0    0   11
